module github.com/eben/product

go 1.19

require (
	github.com/common-nighthawk/go-figure v0.0.0-20210622060536-734e95fb86be
	github.com/gin-gonic/gin v1.8.2
	github.com/go-sql-driver/mysql v1.7.0
	gorm.io/datatypes v1.1.0
	gorm.io/driver/mysql v1.4.5
	gorm.io/driver/sqlite v1.4.4
	gorm.io/gorm v1.24.3
)

require (
	github.com/bradfitz/gomemcache v0.0.0-20220106215444-fb4bf637b56d // indirect
	github.com/davecgh/go-spew v1.1.1 // indirect
	github.com/gin-contrib/cache v1.2.0 // indirect
	github.com/gin-contrib/sse v0.1.0 // indirect
	github.com/go-playground/locales v0.14.1 // indirect
	github.com/go-playground/universal-translator v0.18.0 // indirect
	github.com/go-playground/validator/v10 v10.11.1 // indirect
	github.com/goccy/go-json v0.10.0 // indirect
	github.com/gomodule/redigo v1.8.9 // indirect
	github.com/jinzhu/inflection v1.0.0 // indirect
	github.com/jinzhu/now v1.1.5 // indirect
	github.com/json-iterator/go v1.1.12 // indirect
	github.com/leodido/go-urn v1.2.1 // indirect
	github.com/mattn/go-isatty v0.0.17 // indirect
	github.com/mattn/go-sqlite3 v1.14.16 // indirect
	github.com/memcachier/mc/v3 v3.0.3 // indirect
	github.com/modern-go/concurrent v0.0.0-20180306012644-bacd9c7ef1dd // indirect
	github.com/modern-go/reflect2 v1.0.2 // indirect
	github.com/patrickmn/go-cache v2.1.0+incompatible // indirect
	github.com/pelletier/go-toml/v2 v2.0.6 // indirect
	github.com/pmezard/go-difflib v1.0.0 // indirect
	github.com/robfig/go-cache v0.0.0-20130306151617-9fc39e0dbf62 // indirect
	github.com/stretchr/testify v1.8.1 // indirect
	github.com/ugorji/go/codec v1.2.8 // indirect
	golang.org/x/crypto v0.5.0 // indirect
	golang.org/x/net v0.5.0 // indirect
	golang.org/x/sys v0.4.0 // indirect
	golang.org/x/text v0.6.0 // indirect
	google.golang.org/protobuf v1.28.1 // indirect
	gopkg.in/yaml.v2 v2.4.0 // indirect
	gopkg.in/yaml.v3 v3.0.1 // indirect
)
